{
	"name": "CheckAutopista",
	"catchphrase": "Inspect motorways data",
	"logo": "",
	"picture": "https://wiki.openstreetmap.org/w/images/thumb/8/83/CheckAutopista2.png/640px-CheckAutopista2.png",
	"description": "CheckAutopista is a quality assurance tool for motorways in OpenStreetMap. With CheckAutopista you cand easily find tagging errors or missing data in any motorway from around the world. CheckAutopista only works with motorways gathered in a relation tagged as type=route and route=road. Also the motorway ways need to tagged as highway=motorway or highway=motorway_link.",
	"start_url": "http://k1wiosm.github.io/checkautopista2/",
	"doc_url": "https://github.com/k1wiosm/checkautopista2",
	"settings": {
		"duration": "hours",
		"where": "inside",
		"difficulty": "difficult"
	}
}
