{
	"name": "OpenVegeMap",
	"catchphrase": "Edit vegan/vegetarian restaurants",
	"logo": "",
	"picture": "https://wiki.openstreetmap.org/w/images/thumb/8/84/Openvegemap.png/800px-Openvegemap.png",
	"description": "OpenVegeMap allows you to see restaurants serving vegetarian or vegan food in your city. You can also edit or add restaurants using the dedicated editor.",
	"start_url": "https://openvegemap.netlib.re",
	"doc_url": "https://openvegemap.netlib.re",
	"settings": {
		"duration": "minutes",
		"where": "everywhere",
		"difficulty": "intermediate"
	}
}
