{
	"name": "OpenBeerMap",
	"catchphrase": "Beers available in pubs",
	"logo": "",
	"picture": "https://wiki.openstreetmap.org/w/images/thumb/b/b3/Openbeermap.png/800px-Openbeermap.png",
	"description": "OpenBeerMap allows you to find your favorite beer. You can also edit available beers in pubs directly in the application.",
	"start_url": "http://openbeermap.github.io",
	"doc_url": "https://nlehuby.5apps.com/openbeermap-ou-trouver-ma-biere-preferee.html",
	"settings": {
		"duration": "seconds",
		"where": "everywhere",
		"difficulty": "easy"
	}
}
