{
	"name": "Parking Lanes",
	"catchphrase": "Parking lanes viewer/editor",
	"logo": "",
	"picture": "https://i0.wp.com/www.weeklyosm.eu/wp-content/uploads/2018/10/428_T_ES.jpg",
	"description": "This application allows you to visualize parking lane along a way and to edit their in a very quick and simply manner.",
	"start_url": "https://zlant.github.io/parking-lanes/",
	"doc_url": "https://github.com/zlant/parking-lanes",
	"settings": {
		"duration": "seconds",
		"where": "inside",
		"difficulty": "difficult"
	}
}
