{
	"name": "Pic4Review",
	"catchphrase": "OSM editing using pictures",
	"logo": "https://framagit.org/Pic4Carto/Pic4Review/raw/master/src/www/images/logo.512.png",
	"picture": "https://wiki.openstreetmap.org/w/images/thumb/a/ab/Pic4Review_bus_stop_type.png/800px-Pic4Review_bus_stop_type.png",
	"description": "Pic4Review is an OpenStreetMap editor allowing to contribute using street-level pictures, the simple way. You have thematic missions over an area (for example, bus stop type in Paris), and you can add details on objects easily using pictures.",
	"start_url": "https://pic4review.pavie.info/",
	"doc_url": "https://wiki.openstreetmap.org/wiki/Pic4Review",
	"settings": {
		"duration": "minutes",
		"where": "inside",
		"difficulty": "easy"
	}
}
